{
  "formatVersion": 1,
  "database": {
    "version": 18,
    "identityHash": "9531ce6ff8b4195ccd13a5f4ca9a205f",
    "entities": [
      {
        "tableName": "course",
        "createSql": "CREATE TABLE IF NOT EXISTS `${TABLE_NAME}` (`id` INTEGER NOT NULL, `enrolledUserCount` INTEGER NOT NULL, `shortname` TEXT, `summary` TEXT, `format` TEXT, `name` TEXT, `topCategoryName` TEXT, `categoryName` TEXT, `header_filename` TEXT, `header_size` INTEGER, `header_url` TEXT, `header_timeModified` INTEGER, `header_mimetype` TEXT, `header_reference` TEXT, `header_orderNumber` INTEGER, PRIMARY KEY(`id`))",
        "fields": [
          {
            "fieldPath": "id",
            "columnName": "id",
            "affinity": "INTEGER",
            "notNull": true
          },
          {
            "fieldPath": "enrolledUserCount",
            "columnName": "enrolledUserCount",
            "affinity": "INTEGER",
            "notNull": true
          },
          {
            "fieldPath": "shortname",
            "columnName": "shortname",
            "affinity": "TEXT",
            "notNull": false
          },
          {
            "fieldPath": "summary",
            "columnName": "summary",
            "affinity": "TEXT",
            "notNull": false
          },
          {
            "fieldPath": "format",
            "columnName": "format",
            "affinity": "TEXT",
            "notNull": false
          },
          {
            "fieldPath": "name",
            "columnName": "name",
            "affinity": "TEXT",
            "notNull": false
          },
          {
            "fieldPath": "topCategoryName",
            "columnName": "topCategoryName",
            "affinity": "TEXT",
            "notNull": false
          },
          {
            "fieldPath": "categoryName",
            "columnName": "categoryName",
            "affinity": "TEXT",
            "notNull": false
          },
          {
            "fieldPath": "headerImage.filename",
            "columnName": "header_filename",
            "affinity": "TEXT",
            "notNull": false
          },
          {
            "fieldPath": "headerImage.size",
            "columnName": "header_size",
            "affinity": "INTEGER",
            "notNull": false
          },
          {
            "fieldPath": "headerImage.url",
            "columnName": "header_url",
            "affinity": "TEXT",
            "notNull": false
          },
          {
            "fieldPath": "headerImage.timeModified",
            "columnName": "header_timeModified",
            "affinity": "INTEGER",
            "notNull": false
          },
          {
            "fieldPath": "headerImage.mimetype",
            "columnName": "header_mimetype",
            "affinity": "TEXT",
            "notNull": false
          },
          {
            "fieldPath": "headerImage.reference",
            "columnName": "header_reference",
            "affinity": "TEXT",
            "notNull": false
          },
          {
            "fieldPath": "headerImage.orderNumber",
            "columnName": "header_orderNumber",
            "affinity": "INTEGER",
            "notNull": false
          }
        ],
        "primaryKey": {
          "columnNames": [
            "id"
          ],
          "autoGenerate": false
        },
        "indices": [],
        "foreignKeys": []
      },
      {
        "tableName": "module",
        "createSql": "CREATE TABLE IF NOT EXISTS `${TABLE_NAME}` (`id` INTEGER NOT NULL, `url` TEXT, `name` TEXT, `instance` INTEGER NOT NULL, `moduleType` TEXT NOT NULL, `moduleIconUrl` TEXT, `notAvailableReason` TEXT, `available` INTEGER NOT NULL, `description` TEXT, `courseId` INTEGER NOT NULL, `orderNumber` INTEGER NOT NULL, PRIMARY KEY(`id`, `moduleType`))",
        "fields": [
          {
            "fieldPath": "id",
            "columnName": "id",
            "affinity": "INTEGER",
            "notNull": true
          },
          {
            "fieldPath": "url",
            "columnName": "url",
            "affinity": "TEXT",
            "notNull": false
          },
          {
            "fieldPath": "name",
            "columnName": "name",
            "affinity": "TEXT",
            "notNull": false
          },
          {
            "fieldPath": "instance",
            "columnName": "instance",
            "affinity": "INTEGER",
            "notNull": true
          },
          {
            "fieldPath": "moduleType",
            "columnName": "moduleType",
            "affinity": "TEXT",
            "notNull": true
          },
          {
            "fieldPath": "moduleIconUrl",
            "columnName": "moduleIconUrl",
            "affinity": "TEXT",
            "notNull": false
          },
          {
            "fieldPath": "notAvailableReason",
            "columnName": "notAvailableReason",
            "affinity": "TEXT",
            "notNull": false
          },
          {
            "fieldPath": "available",
            "columnName": "available",
            "affinity": "INTEGER",
            "notNull": true
          },
          {
            "fieldPath": "description",
            "columnName": "description",
            "affinity": "TEXT",
            "notNull": false
          },
          {
            "fieldPath": "courseId",
            "columnName": "courseId",
            "affinity": "INTEGER",
            "notNull": true
          },
          {
            "fieldPath": "orderNumber",
            "columnName": "orderNumber",
            "affinity": "INTEGER",
            "notNull": true
          }
        ],
        "primaryKey": {
          "columnNames": [
            "id",
            "moduleType"
          ],
          "autoGenerate": false
        },
        "indices": [],
        "foreignKeys": []
      },
      {
        "tableName": "file",
        "createSql": "CREATE TABLE IF NOT EXISTS `${TABLE_NAME}` (`filename` TEXT, `size` INTEGER NOT NULL, `url` TEXT NOT NULL, `timeModified` INTEGER NOT NULL, `mimetype` TEXT, `reference` TEXT, `orderNumber` INTEGER NOT NULL, PRIMARY KEY(`url`))",
        "fields": [
          {
            "fieldPath": "filename",
            "columnName": "filename",
            "affinity": "TEXT",
            "notNull": false
          },
          {
            "fieldPath": "size",
            "columnName": "size",
            "affinity": "INTEGER",
            "notNull": true
          },
          {
            "fieldPath": "url",
            "columnName": "url",
            "affinity": "TEXT",
            "notNull": true
          },
          {
            "fieldPath": "timeModified",
            "columnName": "timeModified",
            "affinity": "INTEGER",
            "notNull": true
          },
          {
            "fieldPath": "mimetype",
            "columnName": "mimetype",
            "affinity": "TEXT",
            "notNull": false
          },
          {
            "fieldPath": "reference",
            "columnName": "reference",
            "affinity": "TEXT",
            "notNull": false
          },
          {
            "fieldPath": "orderNumber",
            "columnName": "orderNumber",
            "affinity": "INTEGER",
            "notNull": true
          }
        ],
        "primaryKey": {
          "columnNames": [
            "url"
          ],
          "autoGenerate": false
        },
        "indices": [],
        "foreignKeys": []
      },
      {
        "tableName": "downloadedFile",
        "createSql": "CREATE TABLE IF NOT EXISTS `${TABLE_NAME}` (`location` TEXT, `filename` TEXT, `size` INTEGER NOT NULL, `url` TEXT NOT NULL, `timeModified` INTEGER NOT NULL, `mimetype` TEXT, `reference` TEXT, `orderNumber` INTEGER NOT NULL, PRIMARY KEY(`url`))",
        "fields": [
          {
            "fieldPath": "location",
            "columnName": "location",
            "affinity": "TEXT",
            "notNull": false
          },
          {
            "fieldPath": "filename",
            "columnName": "filename",
            "affinity": "TEXT",
            "notNull": false
          },
          {
            "fieldPath": "size",
            "columnName": "size",
            "affinity": "INTEGER",
            "notNull": true
          },
          {
            "fieldPath": "url",
            "columnName": "url",
            "affinity": "TEXT",
            "notNull": true
          },
          {
            "fieldPath": "timeModified",
            "columnName": "timeModified",
            "affinity": "INTEGER",
            "notNull": true
          },
          {
            "fieldPath": "mimetype",
            "columnName": "mimetype",
            "affinity": "TEXT",
            "notNull": false
          },
          {
            "fieldPath": "reference",
            "columnName": "reference",
            "affinity": "TEXT",
            "notNull": false
          },
          {
            "fieldPath": "orderNumber",
            "columnName": "orderNumber",
            "affinity": "INTEGER",
            "notNull": true
          }
        ],
        "primaryKey": {
          "columnNames": [
            "url"
          ],
          "autoGenerate": false
        },
        "indices": [],
        "foreignKeys": []
      },
      {
        "tableName": "choice",
        "createSql": "CREATE TABLE IF NOT EXISTS `${TABLE_NAME}` (`id` INTEGER NOT NULL, `name` TEXT, `description` TEXT, `allowUpdate` INTEGER NOT NULL, `allowMultiple` INTEGER NOT NULL, `limitAnswers` INTEGER NOT NULL, `resultAvailability` INTEGER NOT NULL DEFAULT 0, `resultOnymous` INTEGER NOT NULL DEFAULT false, `timeOpen` INTEGER NOT NULL DEFAULT 0, `timeClose` INTEGER NOT NULL DEFAULT 0, PRIMARY KEY(`id`))",
        "fields": [
          {
            "fieldPath": "id",
            "columnName": "id",
            "affinity": "INTEGER",
            "notNull": true
          },
          {
            "fieldPath": "name",
            "columnName": "name",
            "affinity": "TEXT",
            "notNull": false
          },
          {
            "fieldPath": "description",
            "columnName": "description",
            "affinity": "TEXT",
            "notNull": false
          },
          {
            "fieldPath": "allowUpdate",
            "columnName": "allowUpdate",
            "affinity": "INTEGER",
            "notNull": true
          },
          {
            "fieldPath": "allowMultiple",
            "columnName": "allowMultiple",
            "affinity": "INTEGER",
            "notNull": true
          },
          {
            "fieldPath": "limitAnswers",
            "columnName": "limitAnswers",
            "affinity": "INTEGER",
            "notNull": true
          },
          {
            "fieldPath": "resultAvailability",
            "columnName": "resultAvailability",
            "affinity": "INTEGER",
            "notNull": true,
            "defaultValue": "0"
          },
          {
            "fieldPath": "resultOnymous",
            "columnName": "resultOnymous",
            "affinity": "INTEGER",
            "notNull": true,
            "defaultValue": "false"
          },
          {
            "fieldPath": "timeOpen",
            "columnName": "timeOpen",
            "affinity": "INTEGER",
            "notNull": true,
            "defaultValue": "0"
          },
          {
            "fieldPath": "timeClose",
            "columnName": "timeClose",
            "affinity": "INTEGER",
            "notNull": true,
            "defaultValue": "0"
          }
        ],
        "primaryKey": {
          "columnNames": [
            "id"
          ],
          "autoGenerate": false
        },
        "indices": [],
        "foreignKeys": []
      },
      {
        "tableName": "choiceOption",
        "createSql": "CREATE TABLE IF NOT EXISTS `${TABLE_NAME}` (`id` INTEGER NOT NULL, `limit` INTEGER NOT NULL, `answerCount` INTEGER NOT NULL, `text` TEXT, `checked` INTEGER NOT NULL, `disabled` INTEGER NOT NULL, `reference` INTEGER NOT NULL, `orderNumber` INTEGER NOT NULL DEFAULT 0, PRIMARY KEY(`id`))",
        "fields": [
          {
            "fieldPath": "id",
            "columnName": "id",
            "affinity": "INTEGER",
            "notNull": true
          },
          {
            "fieldPath": "limit",
            "columnName": "limit",
            "affinity": "INTEGER",
            "notNull": true
          },
          {
            "fieldPath": "answerCount",
            "columnName": "answerCount",
            "affinity": "INTEGER",
            "notNull": true
          },
          {
            "fieldPath": "text",
            "columnName": "text",
            "affinity": "TEXT",
            "notNull": false
          },
          {
            "fieldPath": "checked",
            "columnName": "checked",
            "affinity": "INTEGER",
            "notNull": true
          },
          {
            "fieldPath": "disabled",
            "columnName": "disabled",
            "affinity": "INTEGER",
            "notNull": true
          },
          {
            "fieldPath": "reference",
            "columnName": "reference",
            "affinity": "INTEGER",
            "notNull": true
          },
          {
            "fieldPath": "orderNumber",
            "columnName": "orderNumber",
            "affinity": "INTEGER",
            "notNull": true,
            "defaultValue": "0"
          }
        ],
        "primaryKey": {
          "columnNames": [
            "id"
          ],
          "autoGenerate": false
        },
        "indices": [],
        "foreignKeys": []
      },
      {
        "tableName": "choiceResult",
        "createSql": "CREATE TABLE IF NOT EXISTS `${TABLE_NAME}` (`id` INTEGER NOT NULL, `text` TEXT, `answerCount` INTEGER NOT NULL, `answerLimit` INTEGER NOT NULL, `answerPercentage` REAL NOT NULL, `reference` INTEGER NOT NULL, `orderNumber` INTEGER NOT NULL, PRIMARY KEY(`id`))",
        "fields": [
          {
            "fieldPath": "id",
            "columnName": "id",
            "affinity": "INTEGER",
            "notNull": true
          },
          {
            "fieldPath": "text",
            "columnName": "text",
            "affinity": "TEXT",
            "notNull": false
          },
          {
            "fieldPath": "answerCount",
            "columnName": "answerCount",
            "affinity": "INTEGER",
            "notNull": true
          },
          {
            "fieldPath": "answerLimit",
            "columnName": "answerLimit",
            "affinity": "INTEGER",
            "notNull": true
          },
          {
            "fieldPath": "answerPercentage",
            "columnName": "answerPercentage",
            "affinity": "REAL",
            "notNull": true
          },
          {
            "fieldPath": "reference",
            "columnName": "reference",
            "affinity": "INTEGER",
            "notNull": true
          },
          {
            "fieldPath": "orderNumber",
            "columnName": "orderNumber",
            "affinity": "INTEGER",
            "notNull": true
          }
        ],
        "primaryKey": {
          "columnNames": [
            "id"
          ],
          "autoGenerate": false
        },
        "indices": [],
        "foreignKeys": []
      },
      {
        "tableName": "discussion",
        "createSql": "CREATE TABLE IF NOT EXISTS `${TABLE_NAME}` (`id` INTEGER NOT NULL, `name` TEXT, `discussionId` INTEGER NOT NULL, `parent` INTEGER NOT NULL, `userId` INTEGER NOT NULL, `userName` TEXT, `userAvatar` TEXT, `subject` TEXT, `message` TEXT, `created` INTEGER NOT NULL, `modified` INTEGER NOT NULL, `lastPostUserId` INTEGER NOT NULL, `replyCount` INTEGER NOT NULL, `pinned` INTEGER NOT NULL, `forumId` INTEGER NOT NULL, PRIMARY KEY(`id`))",
        "fields": [
          {
            "fieldPath": "id",
            "columnName": "id",
            "affinity": "INTEGER",
            "notNull": true
          },
          {
            "fieldPath": "name",
            "columnName": "name",
            "affinity": "TEXT",
            "notNull": false
          },
          {
            "fieldPath": "discussionId",
            "columnName": "discussionId",
            "affinity": "INTEGER",
            "notNull": true
          },
          {
            "fieldPath": "parent",
            "columnName": "parent",
            "affinity": "INTEGER",
            "notNull": true
          },
          {
            "fieldPath": "userId",
            "columnName": "userId",
            "affinity": "INTEGER",
            "notNull": true
          },
          {
            "fieldPath": "userName",
            "columnName": "userName",
            "affinity": "TEXT",
            "notNull": false
          },
          {
            "fieldPath": "userAvatar",
            "columnName": "userAvatar",
            "affinity": "TEXT",
            "notNull": false
          },
          {
            "fieldPath": "subject",
            "columnName": "subject",
            "affinity": "TEXT",
            "notNull": false
          },
          {
            "fieldPath": "message",
            "columnName": "message",
            "affinity": "TEXT",
            "notNull": false
          },
          {
            "fieldPath": "created",
            "columnName": "created",
            "affinity": "INTEGER",
            "notNull": true
          },
          {
            "fieldPath": "modified",
            "columnName": "modified",
            "affinity": "INTEGER",
            "notNull": true
          },
          {
            "fieldPath": "lastPostUserId",
            "columnName": "lastPostUserId",
            "affinity": "INTEGER",
            "notNull": true
          },
          {
            "fieldPath": "replyCount",
            "columnName": "replyCount",
            "affinity": "INTEGER",
            "notNull": true
          },
          {
            "fieldPath": "pinned",
            "columnName": "pinned",
            "affinity": "INTEGER",
            "notNull": true
          },
          {
            "fieldPath": "forumId",
            "columnName": "forumId",
            "affinity": "INTEGER",
            "notNull": true
          }
        ],
        "primaryKey": {
          "columnNames": [
            "id"
          ],
          "autoGenerate": false
        },
        "indices": [],
        "foreignKeys": []
      }
    ],
    "views": [],
    "setupQueries": [
      "CREATE TABLE IF NOT EXISTS room_master_table (id INTEGER PRIMARY KEY,identity_hash TEXT)",
      "INSERT OR REPLACE INTO room_master_table (id,identity_hash) VALUES(42, '9531ce6ff8b4195ccd13a5f4ca9a205f')"
    ]
  }
}